0
15
12
4
2
1
1
0
0
1
0
0
0
0
0
0
0
0
0
0
0
0
0
0
0
0
0
1
0
0
0
0
1
0
0
0
0
0
0
0
0
1
1
1
1
2
0
1
4
0
1
2
4
2
5
5
9
11
6
11
10
16
22
13
12
24
23
28
32
26
32
49
57
64
63
69
81
79
102
114
96
114
137
132
174
155
202
193
222
239
251
260
253
309
299
318
316
317
330
379
398
391
441
442
452
491
521
504
543
535
561
594
608
681
708
741
758
798
737
813
841
825
781
796
849
849
926
963
974
1036
1019
1092
1072
1118
1142
1130
1200
1243
1258
1333
1258
1302
1364
1392
1387
1534
1522
1583
1580
1551
1595
1664
1666
1668
1797
1740
1786
1876
1768
1851
1865
2012
2064
2060
2152
2109
2162
2184
2303
2284
2300
2330
2368
2339
2396
2473
2548
2470
2600
2649
2666
2551
2767
2787
2796
2802
2895
2948
3024
3269
3379
3409
3391
3302
3167
3159
3099
3045
3049
3077
3117
3088
3100
3248
3378
3399
3389
3514
3616
3718
3838
3930
3969
4139
3993
3833
3773
3812
3886
3778
3751
3648
3550
3376
3414
3320
3309
3315
3394
3428
3412
3298
3395
3348
3429
3401
3426
3516
3496
3587
3657
3499
3523
3629
3440
3607
3625
3649
3645
3538
3451
3607
3463
3470
3436
3474
3489
3554
3354
3421
3380
3451
3452
3519
3435
3512
3433
3494
3276
3419
3348
3215
3327
3378
3254
3500
3333
3413
3430
3314
3392
3418
3412
3399
3271
3355
3459
3357
3334
3426
3399
3428
3379
3409
3389
3344
3338
3383
3460
3300
3459
3410
3437
3391
3464
3359
3404
3573
3487
3408
3369
3420
3349
3363
3390
3361
3438
3428
3364
3358
3475
3416
3318
3349
3333
3302
3408
3306
3380
3388
3339
3346
3296
3364
3357
3305
3304
3282
3404
3336
3371
3346
3333
3168
3264
3382
3286
3288
3296
3270
3346
3282
3325
3244
3228
3194
3278
3260
3163
3204
3279
3269
3210
3229
3169
3272
3222
3121
3321
3184
3220
3235
3137
3130
3125
3232
3077
3278
3154
3162
3201
3203
3205
3103
3032
3084
3090
3072
3088
3114
3080
3214
3162
3031
3156
3016
3034
3112
3124
2998
2987
3040
3031
2999
3044
3109
3075
3008
3126
3075
2998
3090
2978
2987
3044
2966
2907
2929
3027
2986
2986
2961
2954
3047
3028
2953
2949
2924
3076
2920
3051
3040
2890
3017
2923
3049
2926
2978
2953
2949
2871
3008
2837
2904
2954
2907
2937
2910
2859
3009
2847
2970
2883
2882
2830
2899
2840
2902
2914
2886
2943
2829
2780
2839
2859
2917
2887
2950
2856
2850
2902
2934
2885
2871
3033
2931
2947
3019
3083
3034
3116
3121
3146
3280
3312
3346
3364
3465
3374
3418
3493
3519
3504
3553
3565
3600
3502
3522
3563
3532
3480
3480
3552
3641
3476
3516
3453
3357
3432
3398
3471
3334
3503
3451
3334
3355
3364
3297
3323
3348
3230
3250
3115
3138
3087
3184
3246
3182
3170
3222
3154
3143
2965
2996
3050
2905
3069
2983
2949
2940
2900
2926
2829
2835
2872
2788
2737
2799
2850
2675
2781
2764
2750
2702
2738
2713
2741
2698
2757
2709
2580
2650
2574
2729
2641
2636
2563
2627
2597
2638
2608
2548
2582
2588
2635
2546
2502
2574
2508
2525
2501
2447
2548
2518
2504
2462
2459
2498
2343
2492
2470
2502
2459
2439
2560
2418
2464
2349
2404
2294
2283
2454
2341
2261
2312
2382
2355
2338
2363
2340
2291
2268
2171
2291
2228
2284
2244
2318
2207
2233
2210
2181
2249
2246
2198
2189
2191
2085
2155
2224
2170
2210
2240
2174
2238
2080
2211
2174
2141
2120
2143
2161
2038
2126
2191
2090
2119
2152
2111
2099
2035
2061
2043
2043
2032
2028
2106
2025
2065
2041
2049
1971
2041
2072
1955
1987
1965
2086
2069
1941
1987
2027
2090
2085
2243
2247
2329
2515
2495
2401
2280
2168
2061
2005
2016
1993
2030
2122
1926
1971
1910
1887
1905
1957
1891
1942
1875
1864
1880
1782
1832
1873
1927
1886
1874
1798
1820
1802
1893
1904
1869
1767
1887
1837
1871
1856
1821
1840
1808
1844
1800
1789
1902
1780
1854
1791
1744
1783
1711
1821
1855
1857
1857
1809
1749
1794
1828
1730
1775
1801
1800
1727
1806
1756
1739
1710
1675
1710
1694
1730
1775
1796
1733
1796
1724
1657
1720
1717
1699
1720
1773
1805
1792
1813
1774
1740
1830
1787
1775
1751
1716
1683
1744
1815
1765
1684
1662
1756
1674
1847
1722
1761
1710
1696
1668
1725
1782
1700
1763
1741
1718
1760
1751
1697
1764
1736
1741
1772
1715
1767
1878
2028
2070
2309
2280
2276
2163
1930
1947
1800
1826
1687
1700
1714
1695
1764
1684
1689
1707
1684
1719
1784
1811
1683
1793
1769
1775
1779
1741
1732
1665
1723
1695
1673
1800
1812
1816
1933
1897
1964
1874
1900
1931
1720
1807
1786
1715
1749
1816
1771
1812
1766
1793
1897
1762
1866
1722
1853
1831
1777
1770
1737
1767
1699
1797
1774
1783
1881
1783
1833
1816
1805
1854
1899
1824
1846
1775
1842
1811
1858
1808
1818
1839
1828
1802
1796
1849
1855
1801
1831
1853
1759
1753
1833
1879
1870
1870
1838
1866
1874
1859
1889
1801
1826
1850
1953
1858
1854
1879
1834
1961
1886
1834
1818
1921
1966
1881
1919
1875
1896
1924
1988
1959
1890
1867
1929
1913
1991
1890
1945
1940
1942
1830
1922
1956
2006
1824
1918
1885
1881
1864
1841
1889
1968
1924
1925
1823
1898
1864
1888
1880
1895
1885
1796
1892
1873
1827
1817
1841
1808
1890
1892
1794
1833
1692
1740
1657
1625
1565
1576
1456
1472
1447
1427
1430
1377
1391
1387
1288
1362
1334
1240
1338
1184
1279
1228
1254
1196
1223
1257
1187
1188
1222
1198
1188
1310
1232
1366
1370
1492
1479
1475
1402
1319
1227
1142
1085
1091
1093
1080
1069
1071
1117
1033
1074
1014
1101
1049
1039
1049
1039
1034
1023
1000
1123
1046
1002
1032
985
1033
970
989
1012
969
1010
973
1036
1021
950
941
993
995
968
934
977
941
940
916
945
957
931
928
925
925
925
897
918
981
965
1018
1007
930
934
935
947
913
958
918
909
856
903
832
891
836
932
908
886
865
867
891
818
853
826
866
878
846
832
802
802
808
842
794
758
747
789
755
801
733
789
791
789
824
778
784
834
829
789
808
737
795
761
763
771
778
749
759
809
718
730
709
715
758
715
718
736
735
686
722
685
677
731
681
721
743
710
718
707
669
694
724
672
717
660
702
711
733
662
657
692
655
689
694
670
655
634
705
669
632
668
661
622
668
650
639
647
655
661
680
610
651
615
593
676
593
611
617
648
630
608
608
635
604
588
603
581
617
612
595
602
620
616
563
611
583
603
595
568
568
593
587
600
593
596
613
623
598
559
600
586
586
545
612
553
586
569
612
592
616
542
593
575
597
530
575
559
578
588
583
536
537
537
600
501
580
578
548
558
566
552
532
548
522
582
547
529
546
568
500
541
564
529
488
519
544
535
496
524
541
540
519
535
539
503
483
503
519
507
566
511
491
530
530
503
518
566
522
533
532
501
525
509
496
480
532
491
492
513
473
489
472
457
511
471
456
503
503
459
485
494
485
460
474
476
465
460
443
459
517
483
454
479
462
480
471
481
511
483
479
460
478
485
448
457
437
474
429
445
407
431
448
386
438
442
416
456
429
447
461
413
426
418
448
405
433
417
430
428
426
424
417
407
438
430
445
415
389
420
386
426
447
389
413
442
391
458
421
381
397
412
397
374
382
386
354
391
390
381
429
400
402
387
392
412
440
394
407
397
383
396
373
399
377
405
366
389
395
372
389
411
397
367
350
399
357
372
371
371
407
364
392
388
395
383
394
382
380
381
411
363
370
379
401
396
434
363
420
413
419
408
424
384
431
463
474
423
514
593
611
767
925
1268
1672
2592
4073
6501
10085
15471
22886
31303
40887
49470
56409
60182
59107
54789
47162
37207
28120
19651
12998
8355
5117
3208
1943
1272
895
624
479
458
342
339
297
297
298
256
251
250
226
231
262
271
224
257
221
250
235
224
223
231
245
209
240
215
230
224
238
269
269
229
245
253
225
275
277
248
237
234
244
235
230
237
207
246
210
229
244
217
235
224
214
256
192
243
226
248
225
217
223
207
209
230
241
238
211
239
226
233
206
236
196
206
238
225
230
245
240
254
246
222
231
243
226
216
229
252
193
247
258
250
251
241
228
248
221
264
238
205
216
227
221
226
194
210
220
200
198
238
222
202
230
221
228
214
224
203
228
206
222
230
205
225
234
237
203
204
196
235
243
234
217
224
207
211
225
229
201
211
203
225
271
198
210
207
205
198
207
227
207
208
213
227
226
215
213
209
218
207
202
217
244
222
215
196
179
209
233
243
221
191
182
217
219
202
222
224
180
197
207
201
189
220
214
247
254
305
354
410
438
483
470
374
342
265
281
242
219
203
196
206
216
244
220
213
243
238
222
212
213
207
217
237
223
222
222
201
190
185
207
215
206
217
220
245
251
244
243
274
238
266
241
254
236
200
196
187
192
225
212
202
201
206
206
226
196
199
200
204
185
186
205
198
189
193
209
182
224
214
274
297
375
457
488
538
495
448
414
360
281
243
210
157
224
204
193
193
212
204
199
186
194
193
196
189
239
183
193
211
203
182
178
215
205
182
193
180
212
183
196
197
195
187
209
172
196
205
205
177
175
187
188
218
193
184
197
188
225
183
179
182
169
219
201
170
171
187
205
173
182
202
187
208
204
178
209
203
181
186
178
205
186
203
184
189
189
193
191
213
197
194
168
189
185
196
188
173
183
179
172
190
188
192
208
201
181
161
220
201
220
166
215
186
219
170
184
191
183
189
184
199
202
185
182
182
184
189
201
223
203
203
232
235
277
308
407
383
407
401
371
332
259
249
218
187
181
205
186
181
176
183
215
190
208
183
188
186
181
189
160
189
217
184
204
221
194
210
182
176
201
198
271
293
365
408
458
478
452
376
342
307
252
186
201
199
198
200
191
194
200
170
178
179
195
179
165
190
195
219
189
177
183
199
189
185
184
226
201
198
195
197
183
194
200
177
173
175
192
219
206
197
160
193
200
203
180
180
215
186
181
206
184
172
194
188
175
174
193
158
189
192
203
198
201
185
203
180
179
169
188
174
185
207
175
201
192
211
193
200
211
201
195
185
201
183
177
202
184
174
181
177
184
200
194
190
175
162
205
185
179
177
168
195
176
175
190
196
192
175
188
193
153
196
179
185
191
162
182
175
161
169
162
199
169
180
188
176
186
171
182
166
193
178
188
186
191
167
186
212
184
181
164
198
173
156
200
197
168
172
173
182
165
175
188
185
193
207
215
229
246
232
249
192
200
180
176
185
184
158
161
163
163
173
156
192
177
160
156
179
168
189
158
182
196
183
175
179
185
168
187
182
176
176
174
191
189
171
189
181
155
205
197
184
167
214
196
177
158
183
173
177
190
175
186
173
192
158
184
177
153
166
168
202
166
142
189
175
188
184
166
198
153
171
182
184
168
168
183
175
178
161
185
163
158
185
179
196
201
161
166
171
187
185
165
169
173
179
188
147
178
190
197
204
184
168
191
153
190
171
182
153
165
156
213
180
205
209
194
211
184
192
175
189
191
191
181
149
178
182
177
186
182
199
189
164
157
188
160
162
160
187
163
171
184
162
143
163
165
177
174
166
175
158
169
180
159
162
167
154
161
184
162
179
188
170
184
181
168
205
183
167
183
168
171
174
152
169
177
177
167
167
169
142
173
170
185
164
174
156
172
209
207
183
192
182
185
197
172
154
187
189
178
152
141
146
165
160
158
174
138
181
154
158
151
176
165
174
142
181
152
187
166
183
159
159
174
165
177
160
146
153
147
170
152
154
180
193
169
155
139
162
171
169
161
160
158
196
154
148
157
162
172
162
196
177
175
177
168
161
165
171
188
148
137
193
180
162
150
186
148
167
161
165
158
179
155
167
154
160
143
161
170
180
172
140
162
156
154
173
161
168
159
176
156
178
176
157
153
163
163
162
165
184
182
165
164
168
169
174
175
148
141
141
171
164
164
161
172
155
196
163
176
176
160
173
166
162
173
150
175
175
179
185
174
177
148
174
183
153
157
137
152
153
160
174
152
128
157
154
177
152
140
162
156
145
138
188
169
161
169
160
151
170
170
136
166
145
171
145
153
185
168
160
162
183
175
185
183
191
196
180
165
172
190
146
153
151
140
159
172
153
161
165
156
158
152
163
157
150
159
161
159
169
148
132
157
155
134
159
148
169
152
156
166
166
156
162
156
193
178
220
171
168
172
186
146
151
172
154
172
156
166
169
163
192
155
144
157
151
168
165
158
141
164
145
167
158
153
146
175
159
168
126
136
130
165
168
179
150
140
160
136
172
171
158
162
143
132
170
148
173
163
162
154
156
141
163
164
144
153
151
146
157
165
163
143
147
148
157
156
162
176
142
173
145
151
177
160
163
158
174
160
170
148
166
166
164
169
176
165
158
169
205
167
177
203
205
219
223
266
315
325
335
310
292
232
203
175
159
172
152
156
147
153
130
157
153
149
166
160
169
166
171
136
151
139
152
144
152
123
146
135
150
174
149
148
176
158
160
151
163
162
171
154
138
143
150
154
132
162
162
155
158
134
157
189
163
162
152
129
164
149
148
171
165
164
188
178
140
168
155
162
182
155
153
167
165
144
171
145
131
166
169
174
148
158
149
143
150
162
158
159
155
156
177
158
169
126
168
154
163
142
155
151
162
149
148
140
132
159
142
142
175
166
169
156
144
153
153
158
161
143
155
135
157
144
142
146
149
155
143
152
131
156
155
156
152
152
164
156
158
180
230
241
262
285
319
331
325
281
219
207
215
188
169
190
178
161
155
165
146
204
211
226
235
236
260
249
227
203
198
176
152
141
132
160
154
146
155
152
149
153
140
163
166
149
133
154
141
132
148
134
139
132
135
158
170
135
125
130
140
147
148
135
143
156
143
157
139
154
176
148
157
136
134
149
130
141
152
161
139
148
141
159
138
137
120
141
183
157
131
154
145
152
141
132
150
135
141
134
155
158
141
130
168
146
141
143
166
158
138
144
163
151
139
157
149
137
177
148
143
162
151
158
151
147
140
158
126
154
126
125
149
151
157
125
141
146
157
159
151
153
144
137
163
137
120
117
145
144
162
137
147
145
126
152
155
133
140
132
151
153
148
172
144
144
154
156
166
154
142
173
139
157
141
181
155
147
137
139
142
146
150
152
143
155
143
140
149
145
149
132
145
142
139
148
141
157
152
131
136
137
145
143
143
124
129
135
141
147
132
139
156
133
144
133
143
134
145
133
135
159
140
159
131
139
147
154
145
127
128
157
154
141
151
148
132
144
174
139
166
142
146
145
159
125
137
153
143
119
135
143
151
132
144
136
135
130
142
143
145
126
124
117
139
145
143
131
129
153
142
142
149
141
128
156
139
153
149
165
134
144
172
141
138
159
125
126
140
148
152
158
151
157
131
158
146
139
148
157
156
158
139
123
149
144
129
122
141
155
123
152
127
131
134
121
137
129
130
130
114
130
148
130
140
122
131
125
128
138
138
164
156
143
160
146
147
165
154
148
159
137
148
138
152
154
160
134
149
138
137
125
153
129
138
135
137
118
126
122
144
141
128
137
142
137
160
125
134
145
143
151
134
119
140
155
125
142
142
132
138
142
118
130
149
146
140
136
134
130
123
128
123
164
126
143
134
151
145
159
114
164
121
136
114
151
142
134
130
154
140
145
135
129
151
138
134
149
127
136
140
131
125
146
146
153
160
134
137
163
163
119
127
145
124
141
146
146
124
139
141
127
131
137
149
129
161
128
149
136
153
162
155
208
207
216
203
200
194
190
168
164
150
148
141
126
145
151
125
125
131
115
133
131
133
141
129
152
146
127
153
147
130
125
162
126
135
135
155
137
153
121
134
139
162
157
127
150
135
128
119
146
136
109
142
127
160
130
156
132
136
122
142
124
127
131
129
152
130
136
128
144
123
144
132
136
127
141
125
141
143
137
121
140
148
137
149
139
137
139
126
128
132
134
140
128
132
137
124
147
142
167
134
123
140
149
149
121
130
161
126
125
115
133
105
144
112
129
132
140
128
136
137
126
126
139
137
139
139
141
134
125
136
140
137
135
132
152
150
137
136
142
112
112
130
140
116
130
145
131
155
156
173
193
177
184
199
219
182
172
164
142
143
115
141
128
114
132
125
128
150
146
135
136
116
112
150
126
141
128
127
124
153
121
138
156
146
182
171
168
167
191
176
165
173
174
142
143
133
132
137
131
135
143
123
121
148
146
122
128
136
138
136
121
140
133
138
132
136
168
138
138
147
136
134
138
149
114
144
137
129
120
134
131
112
115
133
129
143
120
135
129
120
141
140
137
148
126
126
115
127
132
121
138
140
134
108
134
119
129
130
136
119
141
127
132
132
136
135
115
118
119
116
127
133
152
121
134
147
130
123
156
115
127
143
113
121
148
139
132
127
119
139
125
151
125
145
122
145
129
116
130
124
138
136
129
141
105
132
129
123
133
134
118
120
115
130
140
116
142
117
125
123
125
105
129
132
134
124
146
117
130
119
122
143
127
141
143
177
138
158
158
149
161
143
140
134
146
133
126
149
114
150
116
133
136
112
149
144
108
117
124
115
124
125
116
127
126
117
135
133
116
120
113
148
131
108
126
120
120
135
119
124
124
128
142
120
129
130
133
125
128
126
129
119
122
110
131
122
102
131
143
134
123
137
121
126
137
135
119
130
135
125
112
119
119
136
132
120
119
121
135
119
119
136
99
116
138
111
125
127
114
133
137
147
126
123
129
109
138
126
127
109
102
131
104
99
95
127
131
104
129
133
144
111
123
129
124
114
135
132
136
129
134
100
124
109
125
151
120
116
130
112
122
135
122
124
104
146
136
107
105
135
118
126
160
112
130
124
109
92
131
120
118
116
121
97
102
125
110
102
118
116
106
114
126
134
114
108
128
119
135
119
121
121
97
133
119
133
130
119
104
115
110
130
106
104
116
118
134
121
132
115
125
110
130
122
126
110
112
126
102
112
111
127
115
123
116
116
116
121
123
122
108
137
130
118
132
124
123
126
113
99
113
105
134
108
136
107
110
98
124
102
125
115
121
119
136
114
120
99
120
120
111
124
114
115
124
131
120
104
115
117
108
120
122
116
106
97
110
109
101
119
95
126
104
137
134
137
151
149
122
141
116
138
97
108
120
103
121
109
97
101
107
110
137
113
114
117
110
111
96
120
109
112
111
108
116
108
113
115
130
122
135
109
120
105
111
100
96
119
82
129
112
113
110
97
119
121
108
134
106
124
119
120
109
145
108
112
116
132
105
85
118
105
132
109
109
119
95
110
130
120
96
123
102
100
131
114
108
112
117
116
122
109
108
120
99
116
98
113
105
131
128
113
121
121
89
112
99
116
124
102
123
92
100
110
95
91
120
128
110
106
123
105
114
105
104
110
102
112
126
112
118
93
114
134
149
114
121
109
121
118
103
101
97
98
100
113
98
128
135
120
114
111
119
107
121
126
111
107
120
108
119
113
117
119
109
112
127
116
127
96
104
109
95
108
106
107
116
103
126
102
116
111
90
109
107
125
120
100
105
107
101
104
109
112
124
108
117
106
112
119
118
101
128
126
114
115
107
105
129
106
106
111
116
94
102
89
137
112
125
130
115
129
136
129
146
109
109
126
116
118
134
116
119
121
111
113
124
97
101
120
121
108
82
132
117
94
104
114
128
119
97
102
118
97
101
110
105
115
99
110
112
108
97
93
101
84
129
109
107
107
108
115
113
115
109
104
108
107
104
109
113
109
105
102
110
100
94
100
103
110
102
112
118
95
74
112
94
118
98
102
108
110
120
88
112
111
116
109
117
116
106
123
80
107
108
95
106
93
119
120
98
104
115
108
85
94
107
105
86
90
110
118
109
122
101
108
118
112
100
99
75
123
112
98
112
98
86
114
91
100
100
109
99
105
108
99
97
93
91
126
104
108
95
129
126
114
178
193
266
318
326
351
303
284
257
198
190
129
138
95
83
112
121
111
113
95
109
103
93
86
102
99
100
91
107
94
101
93
90
89
111
100
91
118
93
91
105
111
101
96
135
95
101
104
96
115
99
107
112
95
90
114
113
97
119
106
115
92
105
89
88
91
97
101
111
115
118
71
113
109
99
114
86
85
103
115
96
104
93
103
89
85
92
121
111
97
104
96
100
91
80
95
98
113
85
97
111
87
109
114
101
113
114
95
98
91
110
93
98
95
98
112
102
81
94
102
99
74
99
105
107
107
116
97
109
94
100
98
84
88
113
99
103
119
109
98
108
108
121
94
101
109
87
109
105
102
86
78
95
97
92
96
89
101
109
105
104
101
90
107
99
84
100
112
97
108
90
72
91
87
94
103
75
101
97
89
95
85
96
94
92
111
105
81
98
113
102
90
106
97
105
113
95
92
93
108
79
102
87
103
96
88
90
93
77
91
91
90
105
91
100
87
84
92
99
98
101
107
101
97
98
97
78
93
102
98
96
109
90
106
93
87
77
74
104
85
76
90
107
86
91
98
94
105
109
77
106
87
81
91
97
94
110
104
89
83
99
102
95
92
105
98
93
98
69
84
79
71
98
97
102
94
83
77
94
91
98
102
79
91
96
105
91
96
96
110
90
89
96
94
87
91
75
88
90
69
92
97
74
89
85
91
108
83
76
90
82
90
84
80
93
108
95
81
86
106
92
84
105
105
100
89
96
85
79
88
106
75
93
101
76
95
89
90
100
92
100
87
93
89
89
95
102
104
83
92
91
93
84
91
101
105
95
104
80
75
79
75
91
100
99
104
125
114
119
92
106
130
81
114
104
99
101
98
96
92
97
112
93
92
85
93
95
95
100
85
92
95
97
90
95
108
82
88
89
87
97
89
89
82
102
88
68
94
89
84
108
88
100
103
95
70
78
68
77
91
79
91
88
106
89
67
90
92
85
88
87
76
89
99
98
84
77
79
100
106
91
65
88
84
72
78
116
76
92
78
94
89
93
100
82
77
81
97
86
93
91
87
90
101
79
81
87
86
88
81
85
103
87
85
87
88
94
93
89
81
90
66
85
68
89
70
86
100
102
95
82
76
75
78
76
81
84
87
102
78
77
69
104
71
94
87
93
76
104
88
77
81
89
77
66
81
73
93
81
92
75
78
83
94
90
87
85
78
86
90
83
78
100
89
81
76
76
75
78
75
80
80
86
99
69
80
57
78
90
87
72
75
75
84
92
87
95
78
91
76
84
72
76
84
91
81
105
85
73
75
93
81
80
81
82
69
104
75
97
75
92
82
84
73
71
73
82
64
81
78
81
71
93
83
73
104
72
83
66
71
71
79
75
82
75
77
84
97
83
74
64
83
92
76
81
95
77
69
96
71
85
90
69
74
87
84
73
74
75
83
64
74
78
91
77
71
83
84
76
69
76
77
88
73
77
89
93
92
73
85
92
91
75
67
91
79
80
83
78
73
70
91
65
73
76
85
92
85
64
80
78
91
75
72
71
73
71
75
79
88
96
83
80
83
94
74
77
78
83
72
73
80
73
72
80
83
72
69
75
76
69
81
80
91
69
63
69
70
83
77
88
74
59
91
85
61
60
80
74
81
68
85
77
76
89
74
68
74
66
71
75
67
67
91
66
87
86
73
77
96
65
79
70
74
70
74
64
82
81
94
73
78
75
75
82
79
66
72
80
78
79
72
73
68
85
79
83
83
84
80
73
95
77
77
84
100
69
69
90
76
75
77
66
65
57
72
74
70
74
67
79
61
78
67
76
73
63
78
66
71
61
70
71
76
81
72
76
65
81
63
74
78
72
57
89
63
89
85
72
79
73
83
70
65
62
69
76
71
83
82
66
66
102
75
67
75
73
58
53
73
71
62
85
68
72
77
62
71
65
62
69
72
64
70
75
77
70
68
73
66
78
72
80
105
107
115
134
131
152
139
146
127
122
90
94
95
83
84
77
91
71
83
68
66
68
71
61
69
74
70
76
78
77
62
77
59
69
75
65
64
69
62
52
67
72
87
61
62
88
75
73
72
68
57
71
67
63
63
72
70
67
78
61
70
75
85
80
62
75
88
68
62
66
59
72
76
87
73
66
61
60
68
60
68
56
66
68
68
74
65
60
65
81
74
81
70
70
68
63
67
65
77
68
82
65
68
75
79
71
81
59
56
60
78
70
51
66
72
71
78
59
67
61
73
73
67
73
78
66
63
66
66
73
63
59
72
59
73
48
72
69
69
58
71
51
71
66
68
65
65
65
56
81
74
69
67
75
73
74
66
58
66
61
61
61
73
73
68
65
58
66
62
68
69
59
76
63
50
66
63
66
65
61
81
64
69
67
71
69
52
76
71
70
58
67
60
67
58
47
65
65
60
50
49
63
68
69
74
75
61
57
64
64
59
80
54
67
81
54
61
65
71
62
61
71
61
63
53
65
64
61
64
71
78
60
65
60
61
64
60
55
61
72
84
59
72
67
96
79
54
75
67
63
70
58
69
64
69
64
70
59
53
49
59
55
77
64
74
53
67
50
60
63
69
59
65
68
55
75
60
67
49
67
56
56
53
63
78
58
58
61
65
57
65
54
66
60
43
58
63
47
49
49
69
42
72
66
62
67
78
72
68
44
74
63
61
56
64
58
58
54
56
73
56
59
71
73
61
58
49
55
66
49
69
62
69
45
56
60
70
49
53
51
65
57
69
64
62
60
70
64
48
59
60
57
51
69
62
45
55
79
67
63
61
65
55
54
42
51
68
47
57
47
67
53
46
49
58
61
61
53
60
56
58
57
50
54
65
58
68
61
52
57
55
60
60
62
70
51
47
58
55
54
60
71
50
46
64
54
70
57
56
52
44
67
66
61
57
70
47
45
57
45
49
40
53
59
65
56
58
59
58
64
57
56
41
55
46
56
69
75
52
54
64
52
67
62
64
55
58
64
54
60
54
57
54
42
59
57
56
67
56
50
49
44
51
69
51
62
55
53
49
74
63
62
52
41
62
61
55
64
61
57
52
67
63
62
54
49
52
49
56
45
47
53
53
69
73
48
59
49
44
47
48
56
57
63
47
46
50
48
53
43
57
42
49
64
58
56
50
66
54
51
59
51
48
63
61
45
51
60
57
47
57
56
55
52
52
50
48
60
59
53
66
49
67
51
57
48
45
63
67
36
53
48
57
41
55
55
53
41
47
58
43
59
51
42
60
59
52
60
50
52
59
60
54
46
42
50
58
61
51
56
49
58
59
54
56
51
53
59
42
49
54
54
62
62
58
37
45
45
57
52
50
58
40
60
54
51
60
45
58
56
49
51
53
48
35
56
47
59
45
46
73
52
56
49
59
47
50
38
52
49
54
50
57
45
52
47
45
55
48
42
48
41
58
51
52
57
51
51
49
57
45
53
50
44
50
60
44
51
54
48
56
47
62
50
49
45
33
36
47
42
51
41
48
42
58
43
48
52
45
41
54
35
49
61
47
35
53
53
46
56
42
31
51
55
60
43
55
47
43
56
51
47
40
50
60
51
32
51
37
51
43
38
40
55
41
53
44
42
52
51
37
49
52
53
47
54
50
42
51
51
35
61
47
48
38
53
45
46
47
67
58
55
44
37
40
51
35
48
59
45
42
41
51
51
36
52
38
45
41
54
38
53
41
54
57
53
34
44
40
42
46
36
38
40
33
51
42
35
43
36
44
50
42
56
50
44
37
48
45
38
50
42
41
50
50
35
50
47
43
39
50
36
41
60
35
46
55
36
34
55
47
44
38
43
49
29
47
36
34
37
55
41
44
44
40
53
51
33
49
45
50
36
49
42
39
51
58
54
45
49
39
39
29
44
44
41
43
42
51
36
40
41
45
47
50
46
34
43
39
44
51
41
46
47
43
52
50
26
47
41
39
47
47
38
47
42
45
43
48
44
40
42
40
38
32
29
47
34
41
38
38
40
42
30
36
46
42
50
33
47
34
49
44
40
46
34
40
38
43
46
33
42
51
42
40
32
49
38
39
49
38
49
45
33
39
33
45
36
44
49
36
43
37
48
35
39
37
36
33
40
34
33
35
35
49
42
41
46
39
38
45
48
40
32
35
35
46
44
45
31
44
53
34
40
39
56
48
69
52
46
64
48
52
47
40
56
37
51
37
40
35
37
37
35
39
27
36
29
39
40
34
35
31
43
31
40
27
29
40
30
48
32
34
37
38
42
31
50
28
43
52
56
35
34
42
37
24
33
43
34
46
35
32
39
46
37
34
41
37
27
35
34
44
47
39
38
41
38
27
36
43
38
35
34
31
40
38
42
42
43
40
35
33
35
31
35
34
41
29
37
44
38
43
33
35
36
44
35
52
39
39
37
41
30
39
36
35
30
33
37
36
32
43
28
32
42
29
31
44
37
36
34
31
30
26
38
24
51
46
40
40
42
35
28
41
35
39
28
44
34
43
40
32
34
29
42
27
30
41
46
34
34
30
35
28
31
32
33
49
37
30
32
33
28
35
33
32
42
28
31
38
32
30
41
36
20
42
27
25
34
37
40
44
27
35
26
43
45
41
30
38
34
43
30
27
41
33
35
33
31
42
27
28
32
43
40
39
38
29
24
20
39
47
29
27
34
27
27
37
24
29
24
33
38
33
40
34
32
33
22
34
31
34
41
27
29
43
30
34
27
32
36
29
23
30
31
38
37
20
30
31
35
33
29
35
35
41
33
32
29
34
33
37
35
33
45
36
31
30
32
39
31
36
21
32
32
33
35
45
53
31
48
43
44
61
41
60
51
52
33
45
36
40
47
23
31
36
31
27
29
20
31
31
40
27
26
29
42
25
27
31
37
38
25
18
35
36
37
32
29
30
37
32
29
28
41
31
40
24
29
34
28
28
20
28
18
30
27
33
35
26
22
32
38
37
26
45
28
31
33
25
41
31
35
27
33
28
27
31
28
31
31
25
40
34
26
36
33
33
20
27
23
31
26
29
35
27
25
27
26
32
25
24
19
36
30
33
23
34
28
38
24
29
28
29
26
24
24
31
21
27
26
34
33
26
29
22
31
28
24
30
27
20
29
35
28
34
28
31
26
20
26
26
27
28
25
16
26
25
34
25
31
29
24
22
30
16
27
31
30
24
23
34
34
26
28
24
23
27
27
27
25
31
29
30
28
31
27
33
36
30
29
29
28
22
30
24
27
27
25
15
22
24
30
28
34
28
23
37
35
31
22
31
26
21
25
29
22
23
28
28
22
24
31
24
24
30
27
33
27
30
22
28
24
26
28
23
25
33
21
21
20
25
28
28
25
18
34
25
24
31
19
21
24
21
23
30
31
29
20
34
28
25
24
31
27
27
19
24
34
30
30
22
31
23
21
26
29
26
30
26
13
24
23
21
28
28
28
30
32
27
34
33
25
26
29
16
27
33
23
22
27
31
33
26
22
23
19
29
25
23
24
27
30
21
24
40
34
23
23
22
23
26
22
16
29
23
21
17
17
27
28
18
36
17
20
20
24
31
33
19
29
28
28
23
25
34
14
21
16
13
30
28
27
25
25
23
21
25
26
28
28
27
22
26
18
19
20
22
16
22
16
36
23
19
23
23
23
32
20
26
26
34
22
14
17
24
27
26
27
18
16
21
20
24
19
20
24
28
29
26
15
29
22
28
23
25
27
19
25
23
31
19
26
26
24
18
32
19
24
22
22
17
20
32
25
17
27
20
22
23
29
26
22
26
22
18
22
26
20
26
23
23
21
19
21
21
25
26
21
18
21
28
28
18
25
16
14
21
27
15
18
18
23
26
27
22
18
22
28
20
14
24
20
21
20
26
11
26
26
18
19
20
20
13
25
20
22
22
19
18
25
18
18
18
19
19
27
17
23
18
17
23
16
14
21
25
16
15
26
28
20
15
17
24
13
26
17
27
27
21
20
17
25
15
13
17
17
12
20
22
26
18
18
7
15
22
19
20
24
16
26
25
23
16
25
15
13
26
17
18
19
16
19
27
13
19
17
11
16
21
20
13
21
28
10
11
14
17
17
9
20
15
16
29
11
17
25
18
19
16
22
19
19
28
16
20
18
21
20
20
20
16
11
13
20
26
12
14
19
10
14
15
13
15
13
16
13
16
16
22
24
21
25
18
18
17
25
10
12
15
16
17
13
14
12
11
17
20
15
14
18
10
22
14
20
15
19
18
10
15
13
13
11
18
15
17
15
16
21
20
18
16
18
19
18
17
11
20
10
21
20
23
22
19
11
11
8
14
13
16
11
12
19
12
11
13
22
18
20
16
17
18
19
12
17
20
12
13
22
19
15
11
11
14
9
17
14
12
17
21
23
13
18
21
20
24
21
23
19
14
13
16
16
13
20
15
14
17
18
13
14
11
9
14
16
19
12
15
21
15
21
12
9
16
12
11
12
21
9
16
15
20
18
9
14
8
18
15
17
16
14
11
14
12
9
18
20
16
20
12
14
15
19
15
12
16
16
10
11
8
18
14
9
11
19
19
24
11
11
12
19
17
12
16
20
16
18
18
19
16
12
12
10
14
21
11
4
13
13
8
15
20
18
15
9
17
16
17
12
11
20
8
13
17
7
15
9
11
13
19
13
15
16
12
17
20
14
13
14
16
13
8
8
10
17
10
9
10
12
7
20
15
12
7
6
9
17
14
16
13
10
8
22
9
12
9
15
15
15
16
13
12
11
12
12
11
11
8
11
10
14
18
18
15
19
14
15
13
13
16
12
14
10
12
17
9
16
12
14
9
11
12
6
13
9
9
12
12
12
11
10
5
11
11
13
15
10
11
13
15
13
13
15
10
9
11
13
11
14
14
8
13
10
15
11
12
11
12
11
13
13
7
5
9
11
9
12
12
11
15
10
10
8
7
16
14
13
9
6
5
16
9
12
9
20
8
10
11
17
6
13
10
10
19
11
12
13
11
10
15
9
7
10
10
4
9
21
8
9
9
7
11
3
11
9
7
5
17
11
13
9
10
12
10
14
9
9
8
11
6
5
3
5
5
6
4
14
11
13
11
8
10
11
13
7
14
10
12
9
11
11
10
11
10
10
1
5
13
5
12
8
8
11
10
8
12
9
8
18
10
9
16
9
13
10
5
11
4
2
8
12
12
6
11
7
7
6
10
5
10
9
9
7
10
12
10
6
4
12
12
8
7
13
7
10
8
11
9
7
19
8
9
9
15
5
7
6
2
12
9
12
7
10
10
12
6
9
1
9
12
9
6
12
6
9
13
9
5
10
6
5
10
13
7
13
7
10
9
7
5
10
6
6
11
4
6
14
6
7
8
13
4
7
8
10
7
9
7
4
4
9
8
8
7
8
5
10
3
8
8
5
6
7
12
7
4
8
6
8
5
5
7
11
7
4
7
4
7
8
11
18
22
21
24
37
51
83
89
119
168
146
167
147
151
110
78
53
41
31
19
10
9
9
8
11
13
6
6
5
10
6
9
6
7
6
9
6
4
7
8
7
4
7
6
10
5
4
5
5
3
7
8
6
5
4
11
3
4
7
9
6
4
4
6
8
8
4
6
7
9
8
7
8
9
8
9
5
7
6
5
10
4
7
4
7
7
8
4
3
4
4
6
3
4
6
7
7
4
9
8
8
8
5
8
7
5
7
5
7
8
7
3
8
4
4
3
7
7
13
6
5
4
7
4
5
7
7
3
7
4
7
4
7
6
6
7
5
4
5
7
8
3
2
9
9
4
6
9
6
4
7
7
2
6
6
5
4
3
7
10
3
5
8
4
4
7
6
3
3
8
2
6
8
6
6
5
12
1
4
2
1
6
3
6
8
6
4
3
7
5
1
7
3
9
1
7
8
7
9
4
13
9
5
7
5
6
7
2
9
5
5
3
3
5
4
5
6
7
4
4
7
7
7
4
3
0
7
5
8
5
3
4
3
5
3
4
10
2
4
10
3
4
5
4
5
8
6
5
4
3
5
5
5
8
2
5
4
4
4
5
4
9
1
10
1
5
5
4
5
6
3
4
7
3
4
2
7
4
3
6
2
7
2
3
5
6
8
7
2
3
5
3
7
2
8
4
7
4
6
9
3
8
5
4
0
6
2
1
7
5
1
2
5
7
2
1
6
1
8
5
4
9
4
4
5
6
4
7
1
1
2
4
3
3
3
4
2
7
4
3
1
6
4
2
5
4
1
4
3
4
6
2
7
6
4
3
6
1
2
4
3
4
1
3
8
2
1
4
6
2
3
2
1
2
2
6
4
3
6
4
2
4
6
4
2
2
3
4
6
6
2
3
3
6
5
2
2
7
4
3
2
6
3
7
1
2
2
2
1
3
3
0
0
4
4
5
3
4
4
7
2
4
6
5
2
3
2
3
3
5
3
7
4
1
2
3
2
5
6
4
6
4
4
4
5
6
2
2
0
6
1
8
4
6
4
4
6
2
4
5
3
4
6
4
6
1
4
3
7
5
1
2
4
5
2
2
2
5
3
1
5
2
1
0
6
4
1
6
2
4
4
1
0
1
4
3
2
5
7
2
5
4
2
3
2
5
3
6
1
2
4
4
3
0
6
1
2
4
4
3
1
3
7
2
4
2
3
4
3
7
4
2
1
0
1
3
2
1
1
2
4
3
1
2
3
2
2
3
4
1
0
1
1
1
3
2
2
3
3
3
3
2
7
1
3
5
5
2
6
1
2
4
1
4
3
1
1
4
0
4
5
5
2
2
3
3
2
3
1
1
3
2
4
3
2
2
1
3
1
3
2
4
7
4
3
2
3
0
1
1
4
2
0
2
6
3
4
3
1
4
1
3
2
2
2
3
0
1
2
1
4
1
5
1
4
3
1
2
3
5
5
2
2
1
3
0
6
1
3
0
6
1
2
1
4
2
3
7
2
3
2
0
0
3
2
3
8
1
4
1
1
2
1
2
3
3
2
0
4
1
2
1
1
4
0
3
2
5
1
0
0
4
0
3
2
5
0
2
5
1
2
1
4
1
4
0
1
2
2
1
4
0
3
3
2
1
1
4
2
2
1
5
0
0
0
0
2
3
0
1
0
0
1
2
1
4
1
0
1
3
5
1
2
1
2
0
1
1
2
1
1
1
1
2
2
1
3
2
5
1
3
3
3
3
0
5
5
1
2
2
2
4
5
1
1
2
3
1
1
0
1
2
3
0
5
2
1
1
1
3
3
3
0
3
1
3
4
1
3
0
1
3
2
0
0
3
2
2
0
0
1
3
2
3
3
2
1
1
3
2
0
4
2
2
2
1
2
0
1
4
2
3
0
1
1
2
1
0
0
1
1
1
1
3
2
2
2
1
1
0
4
0
2
0
1
0
1
2
2
0
3
3
1
1
1
2
2
1
3
1
4
1
1
0
2
0
1
2
1
1
3
3
0
2
2
1
2
1
2
3
0
2
2
0
1
1
0
1
0
2
4
1
5
1
0
3
1
0
0
1
1
2
0
0
0
1
2
1
0
3
2
0
2
2
2
1
0
4
1
1
2
1
1
2
2
2
1
2
0
0
1
0
0
1
1
1
2
2
1
0
4
0
0
0
0
1
4
1
0
0
1
1
0
1
0
1
0
2
0
3
1
0
3
0
1
0
2
0
1
1
0
1
1
4
1
2
2
3
1
0
1
1
1
1
2
1
3
0
1
0
1
3
1
2
1
1
3
1
1
1
1
1
2
3
1
2
1
2
1
0
0
1
1
0
1
0
0
1
0
0
0
0
3
1
0
1
0
2
2
2
1
3
1
0
0
1
0
2
0
4
0
1
2
0
0
1
4
2
3
1
0
1
0
1
0
0
2
0
1
0
1
1
0
2
0
0
1
2
1
1
2
1
1
1
1
1
2
1
0
0
0
1
4
2
3
1
1
0
0
0
0
0
1
1
1
1
0
1
1
0
1
1
0
0
1
1
1
2
0
0
0
0
0
1
1
0
0
1
1
1
1
0
0
1
0
1
0
1
0
0
0
0
0
1
0
1
0
0
2
0
1
1
2
0
0
0
0
0
0
0
1
2
0
0
1
0
0
0
2
1
1
0
0
0
1
0
1
1
1
1
2
1
0
0
0
1
0
0
1
1
0
0
0
2
0
0
1
0
0
0
1
0
0
1
0
1
0
0
0
0
1
0
0
1
1
0
1
1
1
1
1
0
2
1
0
0
1
0
0
1
0
1
0
0
0
1
1
2
2
0
0
0
1
1
2
0
1
0
0
1
1
1
0
1
0
0
0
0
1
0
1
0
0
1
0
0
1
0
0
0
0
1
0
1
0
0
0
3
0
1
0
2
0
0
2
0
0
1
0
0
0
1
1
0
0
0
1
0
1
0
0
1
0
0
2
1
0
1
0
1
2
1
0
0
1
0
0
0
0
0
0
0
0
2
0
0
0
0
0
0
0
1
1
0
0
2
2
1
0
0
0
0
1
0
1
0
1
0
0
0
0
0
0
0
1
2
0
1
1
0
0
0
0
0
1
0
1
0
0
0
0
0
0
0
0
0
0
0
0
2
1
0
0
0
1
0
0
1
1
0
0
1
0
0
0
0
1
0
0
2
0
1
0
0
0
0
0
0
1
0
1
0
0
0
0
2
0
0
2
1
0
0
0
0
0
0
1
0
0
0
0
0
0
0
0
0
0
0
0
0
0
1
1
0
0
1
1
0
1
0
1
0
0
0
0
0
1
1
0
1
0
0
1
0
0
0
0
1
1
1
1
0
0
1
0
1
0
0
0
1
1
1
0
0
0
0
1
0
1
1
1
0
1
2
0
1
1
0
0
0
1
0
0
0
2
0
1
0
1
0
0
0
1
1
0
0
0
0
0
1
0
0
1
0
0
0
0
0
1
2
0
1
0
1
1
1
2
0
0
0
0
0
0
1
1
0
0
0
0
0
0
1
0
0
0
1
0
0
0
0
0
0
0
0
0
1
0
0
0
1
1
0
0
1
1
0
0
0
0
0
0
2
0
1
0
0
1
0
0
2
0
0
1
0
0
0
2
0
0
1
1
0
0
0
0
1
0
0
0
0
1
0
0
0
1
0
1
0
0
0
0
0
0
0
0
0
1
0
0
1
0
1
0
0
1
0
1
0
0
0
0
0
0
0
0
0
0
1
1
2
2
1
0
0
0
0
0
0
2
0
1
0
0
0
0
2
0
0
0
1
1
0
1
0
0
1
0
0
0
0
0
0
0
0
0
0
0
0
1
0
0
0
0
1
0
0
2
0
2
0
0
0
0
0
1
0
1
0
0
0
0
0
1
0
0
0
0
0
0
0
1
0
0
2
1
0
0
0
0
0
0
0
0
0
1
0
0
1
0
0
2
0
0
0
1
0
0
0
1
0
0
0
0
1
0
0
0
0
0
1
1
0
0
0
0
0
1
0
1
0
0
1
1
0
0
0
0
0
0
0
0
0
0
0
0
0
1
0
0
0
0
0
0
0
0
0
1
0
0
0
1
1
1
0
0
0
0
1
0
0
1
0
0
0
0
0
0
0
0
0
0
0
0
0
0
0
0
0
0
0
0
0
1
0
1
0
0
0
0
1
0
0
0
0
0
0
0
1
0
0
0
0
0
0
0
1
0
0
0
0
0
1
2
1
0
2
0
1
1
0
0
1
0
0
0
0
0
0
0
0
0
0
0
1
0
0
0
0
1
0
0
0
0
0
0
0
0
0
0
0
0
0
0
0
0
1
0
0
0
0
0
0
0
1
0
0
0
1
0
0
0
0
2
0
0
0
0
1
1
0
1
0
0
0
0
0
0
0
0
0
0
0
1
1
0
0
0
0
0
0
0
0
0
0
1
0
0
0
0
0
0
0
0
0
0
0
0
0
1
0
0
0
0
0
0
0
0
0
0
0
0
0
0
0
1
0
0
0
1
0
0
1
1
0
0
0
0
0
1
0
1
0
0
0
0
0
0
0
0
0
0
0
0
0
0
1
0
0
2
1
0
0
0
0
0
0
0
0
0
0
0
0
2
0
0
0
0
0
0
0
0
0
0
0
0
0
0
0
0
0
0
0
0
0
0
0
1
0
0
0
0
1
0
0
0
0
1
0
2
0
0
0
0
0
0
1
0
0
0
0
0
0
1
0
0
0
0
0
0
0
1
0
0
1
0
0
0
0
0
0
0
0
0
0
0
0
0
0
1
0
0
0
0
0
0
1
0
0
0
0
1
1
0
0
1
0
0
0
0
0
0
0
0
0
0
0
1
0
1
0
0
0
0
0
0
0
0
0
0
0
0
0
0
1
0
0
0
0
0
0
0
0
1
0
0
0
0
0
0
0
0
1
0
0
1
0
1
0
0
0
0
0
2
0
0
0
0
0
0
0
0
0
0
0
0
0
0
0
0
0
0
0
0
0
0
0
1
0
0
0
0
0
0
0
0
0
0
0
0
0
0
0
0
0
0
0
0
1
0
0
0
0
0
0
0
0
0
0
0
0
0
0
0
1
0
0
0
0
0
1
0
0
0
0
0
0
1
0
0
0
0
1
0
0
0
0
0
0
0
0
0
0
0
0
0
0
0
0
0
0
0
0
0
0
0
0
1
0
0
0
0
0
0
0
0
1
0
0
0
1
0
1
1
0
0
0
0
0
0
0
0
0
1
0
0
0
0
0
0
0
0
0
0
0
0
0
0
0
0
0
0
0
1
0
0
0
1
0
0
0
0
0
0
0
0
0
0
0
0
0
0
0
1
0
0
0
0
0
0
1
0
0
0
0
1
0
0
0
0
0
0
0
0
0
0
0
0
0
0
0
0
0
0
0
0
0
0
0
0
0
0
0
0
0
0
0
0
0
0
0
0
0
0
0
0
0
0
0
0
0
0
0
0
1
1
1
0
0
0
1
0
0
0
0
0
0
0
1
0
0
0
0
0
0
0
0
0
0
0
0
0
1
0
0
0
0
0
0
0
0
0
0
0
0
0
0
0
0
0
0
0
0
0
0
0
0
0
0
0
0
0
0
0
0
0
0
0
0
0
0
0
0
0
0
0
0
0
0
0
0
1
0
0
0
0
0
0
0
0
0
0
0
0
0
0
0
0
0
0
0
0
0
0
0
0
1
1
1
0
0
0
0
0
0
0
0
0
0
0
0
0
0
0
0
0
0
0
0
0
0
0
0
0
0
0
0
0
0
0
0
0
0
0
0
0
0
0
0
0
0
0
0
0
1
0
1
0
0
0
0
0
0
0
0
0
0
0
0
0
0
0
0
0
0
0
0
0
0
0
0
0
0
0
0
0
0
0
0
0
0
0
0
1
0
0
0
0
0
0
1
0
0
0
0
0
0
1
0
0
0
0
0
0
0
0
1
0
0
1
0
0
1
0
0
0
0
0
0
0
0
0
0
0
0
0
1
0
0
0
0
0
0
1
0
0
0
0
0
0
0
0
0
0
0
0
0
0
0
0
0
1
0
0
0
0
0
0
0
0
0
0
0
0
0
0
0
0
0
0
0
1
0
0
0
0
0
0
0
0
0
0
0
0
0
0
0
1
0
0
0
0
0
0
0
0
0
0
0
0
0
0
0
0
0
0
1
0
0
0
0
0
0
0
0
0
0
0
1
0
0
0
0
0
0
0
0
0
0
0
0
0
0
0
0
0
2
0
0
0
0
0
0
0
0
0
0
0
0
0
0
0
1
0
0
0
0
0
0
0
0
0
1
0
0
1
0
0
0
0
0
0
0
0
0
0
0
0
0
0
0
0
0
0
0
0
0
1
0
0
0
0
0
0
0
0
0
0
0
0
0
0
0
0
0
0
0
0
0
0
0
0
0
0
0
0
0
0
0
0
0
0
0
0
0
0
0
0
0
0
0
0
0
0
0
0
0
0
0
1
0
0
0
0
0
0
0
0
0
0
0
0
0
0
0
0
0
0
0
0
1
0
0
1
0
0
0
0
0
0
0
0
0
0
0
0
0
0
0
0
0
0
0
0
0
0
0
0
0
0
0
0
0
0
0
0
0
0
0
0
0
0
0
0
0
1
1
0
0
0
0
0
0
0
0
0
0
0
0
0
0
0
0
0
0
0
0
0
0
0
1
0
0
0
0
1
0
0
0
0
0
0
0
0
0
0
0
0
0
0
0
0
0
0
0
0
0
0
0
0
0
0
0
0
0
0
1
0
0
0
0
0
0
0
0
0
0
0
0
0
0
0
0
0
0
0
0
0
0
0
0
0
0
0
0
0
0
0
0
0
0
0
0
0
0
0
0
0
0
1
0
0
0
0
0
0
0
0
0
1
0
0
0
0
1
0
0
0
0
1
0
0
0
0
0
0
0
0
1
0
1
0
0
0
0
0
0
0
0
0
0
0
0
0
0
0
0
0
0
0
0
0
0
0
0
0
0
0
0
0
0
0
0
0
0
0
0
0
0
0
0
0
0
0
0
0
0
0
0
0
0
0
0
0
0
0
0
0
0
1
0
0
0
0
0
0
0
0
0
0
0
0
0
0
0
0
0
0
0
0
0
0
0
0
0
0
0
0
0
0
0
0
0
0
0
0
1
0
0
0
0
0
0
1
0
0
0
0
0
0
1
0
0
0
0
0
0
0
0
0
0
0
0
1
0
0
0
1
0
0
0
0
0
0
1
0
0
0
0
0
0
0
0
0
0
0
0
0
0
0
0
0
0
0
0
0
0
0
0
0
0
0
0
0
0
0
0
0
0
0
0
0
0
0
0
0
0
0
0
0
0
0
0
1
0
0
0
0
0
0
0
0
0
0
0
0
0
0
0
1
0
0
0
0
0
0
0
0
0
0
0
0
0
0
0
0
0
0
0
0
0
0
0
0
0
0
0
0
0
0
0
0
0
0
0
0
0
0
1
0
0
0
0
0
0
0
0
0
0
0
0
0
0
0
0
0
1
0
0
0
0
0
0
0
0
0
0
0
0
0
0
0
0
0
0
0
0
0
0
0
0
0
0
0
0
0
1
0
0
1
0
1
0
0
0
0
0
0
0
0
0
0
0
0
0
0
0
0
0
0
0
0
0
0
0
0
0
0
0
0
0
1
0
0
0
0
0
0
0
0
0
0
0
0
0
0
1
0
0
0
0
1
0
0
0
0
0
0
0
0
0
0
0
0
0
0
0
0
0
0
0
0
0
0
0
1
0
0
0
0
0
0
0
0
0
0
0
0
0
0
0
0
0
1
0
1
0
0
0
0
0
0
0
0
1
0
0
0
0
1
0
0
0
2
0
0
0
0
0
0
0
0
0
0
0
0
0
0
0
0
0
0
0
0
0
0
0
0
0
0
0
0
1
0
1
0
0
0
0
0
0
0
0
0
0
0
0
0
0
0
0
0
0
0
0
0
0
0
0
0
0
0
0
0
0
0
0
0
0
0
0
0
0
0
0
0
0
0
0
0
0
0
0
1
0
0
0
0
0
0
0
0
0
0
0
0
0
0
0
0
0
0
0
0
0
0
0
0
0
0
0
0
0
0
0
0
0
0
0
0
0
0
0
0
0
0
0
0
0
0
0
0
0
1
0
1
0
0
0
0
0
1
1
0
0
0
0
0
0
0
0
0
0
0
1
0
0
0
1
0
0
0
1
0
0
0
0
0
0
0
0
0
0
0
0
0
0
0
0
0
0
0
0
0
0
0
0
0
0
0
0
0
0
0
0
0
1
0
0
0
0
0
0
0
2
0
0
0
0
0
0
0
0
0
0
0
1
0
0
0
0
0
0
0
0
0
0
0
0
0
0
1
0
0
0
1
1
0
0
0
0
0
0
0
0
0
0
0
0
0
0
0
0
0
0
0
0
0
1
0
0
0
0
0
0
0
0
0
1
0
0
0
0
0
0
0
0
0
0
0
0
0
0
0
0
0
1
0
0
0
0
0
0
0
0
0
1
0
0
0
0
0
0
0
0
0
0
0
0
0
0
0
0
0
0
0
0
0
0
0
0
0
0
0
0
0
0
0
1
0
0
0
0
0
0
0
0
0
0
0
0
0
0
0
0
0
0
0
0
0
0
0
0
1
0
0
0
0
0
0
0
0
0
0
0
0
0
0
0
1
0
0
0
0
0
0
2
0
0
0
0
0
0
0
0
0
0
0
0
0
0
0
0
0
0
0
0
0
0
0
0
0
0
0
0
0
0
0
0
0
0
0
0
0
0
0
0
0
0
0
0
0
0
0
0
0
0
0
0
0
0
0
0
0
0
0
0
0
0
0
0
0
0
0
0
0
0
0
0
0
0
0
0
0
0
0
0
0
0
0
0
0
0
0
0
0
0
0
0
0
0
0
0
0
0
0
0
0
0
0
0
0
0
0
0
0
0
0
0
0
0
0
0
0
0
0
0
0
0
1
0
0
0
0
0
0
1
0
0
0
1
0
0
0
0
0
0
0
0
0
0
0
0
0
0
0
0
0
0
0
0
0
0
1
0
0
0
0
0
0
0
0
0
0
0
1
0
0
0
0
1
0
0
0
0
0
0
0
0
0
0
0
0
0
0
0
0
0
0
0
0
0
0
1
0
1
0
0
0
0
0
0
0
1
0
0
1
0
0
0
0
0
0
0
0
0
0
0
0
0
0
0
0
0
0
0
0
0
0
0
0
0
0
0
0
0
0
0
0
0
0
0
0
0
0
0
0
0
0
0
1
0
0
0
0
0
0
0
0
0
0
0
0
0
0
0
0
0
0
0
0
0
0
0
0
0
0
0
0
0
0
0
0
1
0
0
0
0
0
0
0
0
0
0
0
0
0
0
0
0
0
0
0
0
0
0
0
0
0
0
0
1
0
0
0
0
0
0
0
0
0
0
0
0
0
0
1
0
0
0
0
0
0
0
0
0
0
0
0
0
0
0
0
0
0
0
0
0
0
0
0
0
0
0
0
0
0
1
0
0
0
0
0
0
0
0
0
0
0
0
0
0
0
0
0
0
0
0
1
0
0
0
0
0
1
0
0
0
0
0
0
0
0
0
0
0
0
0
0
0
0
0
0
0
0
0
0
0
0
0
0
0
0
0
0
0
0
0
0
0
0
0
0
0
0
0
0
0
0
0
0
0
0
0
0
0
0
0
1
0
0
0
0
0
0
0
0
0
0
0
0
0
0
0
0
0
0
0
0
0
0
0
1
0
0
0
0
0
0
0
0
1
1
0
0
0
0
0
0
0
0
0
0
0
0
1
0
0
0
0
0
0
0
0
0
0
0
0
0
0
0
1
0
0
0
0
0
0
0
0
0
0
0
0
0
0
1
0
0
0
0
0
0
0
0
0
1
0
0
0
0
0
0
0
0
0
0
0
0
0
0
0
0
0
0
0
1
0
0
0
0
0
0
0
0
0
0
0
0
0
0
0
0
0
0
0
0
0
0
0
0
0
0
0
0
0
0
0
0
0
1
0
0
0
0
0
0
0
0
0
0
0
0
0
0
0
0
1
1
0
0
0
1
0
0
0
0
0
1
0
0
0
0
0
0
0
0
0
0
0
0
0
0
0
0
0
0
0
0
0
0
0
0
0
0
0
0
1
0
0
0
0
0
0
0
0
0
0
0
1
0
1
0
0
0
0
1
0
0
0
0
0
0
0
0
0
0
0
0
0
0
0
0
0
0
0
0
0
0
0
0
0
0
0
1
0
0
0
0
0
0
0
0
0
0
0
0
0
0
0
0
0
0
0
0
0
0
0
0
0
0
0
0
0
0
0
0
0
0
0
0
0
0
0
0
0
0
0
1
0
1
0
0
0
0
0
0
0
0
0
0
0
0
0
0
0
0
0
0
0
0
0
0
0
0
0
0
0
0
1
0
0
0
1
0
0
0
0
0
0
0
0
0
0
0
0
0
0
0
0
0
0
0
1
0
0
0
0
0
0
0
1
0
0
0
0
0
0
0
0
0
0
0
0
0
0
0
0
0
0
0
1
0
1
0
0
0
0
0
0
0
0
0
0
0
0
0
0
0
0
0
0
0
0
1
0
0
0
0
0
0
0
0
0
0
0
0
0
0
0
0
0
0
0
0
0
0
0
0
0
0
0
0
0
0
0
0
0
0
0
0
0
0
0
0
1
0
0
0
0
0
0
0
0
0
0
0
0
0
0
0
0
0
0
0
0
0
0
0
1
0
0
0
0
0
0
0
0
0
0
0
0
0
0
0
0
0
0
0
0
0
0
0
0
0
0
0
0
0
0
0
0
0
0
0
0
0
0
0
0
0
0
0
0
0
0
0
0
0
0
0
0
0
0
0
0
0
0
0
0
0
0
0
0
0
0
0
0
0
0
0
0
0
0
0
0
0
0
0
0
0
0
0
0
0
0
0
0
0
0
0
0
0
0
0
0
0
0
0
0
0
1
0
0
0
0
0
0
0
0
0
0
0
0
0
0
0
0
0
0
0
0
0
0
0
0
0
0
0
0
1
0
0
0
0
0
0
0
0
0
0
0
0
0
0
0
0
0
0
0
0
0
0
0
0
0
0
0
0
0
0
0
0
0
0
0
0
0
0
0
0
0
0
0
0
0
0
0
1
0
0
0
0
0
0
0
0
0
0
0
0
0
0
0
0
0
0
0
0
0
0
0
0
0
0
0
0
0
0
0
0
0
0
0
1
0
0
0
0
0
0
0
0
1
0
0
0
0
0
0
1
0
1
0
0
0
0
0
0
0
0
0
0
0
0
0
0
0
0
0
0
0
0
0
0
0
0
0
0
0
0
0
0
0
0
0
0
0
0
0
0
0
0
0
0
0
0
0
0
0
0
0
0
0
0
0
0
0
0
0
0
0
0
0
0
0
0
0
0
0
0
0
0
0
0
0
0
0
0
0
0
0
0
0
0
0
0
0
0
0
0
0
0
0
0
0
0
0
0
0
1
0
0
0
0
0
0
1
1
0
0
0
0
0
0
0
0
0
0
0
1
0
0
1
0
0
0
0
0
0
0
0
0
0
0
0
1
0
0
0
0
0
0
0
0
0
0
0
0
0
0
0
1
0
0
0
0
0
0
0
0
0
0
0
1
0
1
0
0
0
0
0
0
0
0
0
0
0
0
0
0
0
0
0
0
0
1
0
0
0
0
0
0
0
0
0
0
0
0
1
0
0
0
0
0
0
0
0
0
0
0
0
0
0
0
0
0
0
0
0
0
0
0
0
0
0
1
0
0
0
0
0
0
0
0
0
0
0
1
0
0
0
0
0
0
0
0
0
0
0
0
0
0
0
0
0
0
0
0
0
0
1
0
0
0
0
0
0
0
0
0
1
0
0
0
0
0
1
0
0
0
0
0
0
0
0
0
0
0
0
0
0
0
0
0
0
0
0
0
0
0
0
0
0
0
0
0
0
0
0
0
0
0
0
0
0
0
0
0
0
0
0
0
0
1
0
0
0
0
0
0
0
0
0
0
0
0
0
0
0
0
0
0
0
0
0
0
0
0
0
0
0
0
0
0
0
0
0
0
0
0
0
0
0
0
0
0
0
0
0
0
0
0
0
0
1
0
0
0
0
0
0
0
0
0
0
0
0
0
0
0
0
0
0
0
0
0
0
0
0
0
0
0
0
0
0
0
0
0
1
0
0
0
0
0
0
0
0
0
0
0
0
0
0
0
0
0
0
0
0
0
0
0
0
0
0
1
0
1
0
0
0
0
0
0
0
1
0
0
0
0
0
0
0
0
0
0
0
0
0
0
0
0
0
0
0
0
0
0
0
0
0
0
0
0
0
0
0
1
0
0
0
0
0
0
0
0
0
0
0
0
0
0
0
0
0
0
0
0
0
0
0
0
0
0
0
0
0
0
0
0
0
0
0
0
0
0
0
0
0
0
0
0
0
0
0
0
0
1
0
0
0
0
0
0
0
0
0
0
0
0
0
0
1
0
0
0
0
0
0
0
0
0
0
0
0
0
0
0
0
0
0
0
0
0
0
0
0
0
0
0
0
0
1
0
0
0
0
0
0
0
0
0
0
0
0
0
0
0
0
0
0
0
0
0
0
0
0
0
0
0
0
0
0
0
0
0
0
0
0
0
0
0
0
0
0
0
0
0
0
0
0
0
0
0
0
0
1
0
0
0
0
0
0
0
0
0
0
0
0
0
0
0
0
0
0
0
0
0
0
0
0
0
0
0
0
0
1
0
0
0
0
0
0
0
0
0
0
0
0
0
0
0
0
0
0
0
0
0
0
0
0
1
0
0
0
0
0
0
0
0
0
0
0
0
0
0
0
0
0
0
0
0
0
0
0
0
0
0
0
0
0
0
0
0
0
0
0
0
0
0
1
0
0
0
0
0
0
0
0
0
0
0
0
0
0
0
0
0
0
0
0
0
0
0
0
0
0
0
0
0
0
0
0
0
0
0
0
0
0
1
0
0
0
0
0
0
0
0
0
0
0
0
0
0
0
0
0
0
0
0
0
0
0
0
0
0
0
0
0
0
0
0
0
0
0
0
0
0
0
0
0
0
0
0
0
0
0
1
0
1
0
0
0
0
0
0
0
0
0
0
0
0
0
0
0
0
0
0
0
0
0
0
0
0
0
0
0
0
0
0
0
0
0
0
0
0
0
0
0
0
0
0
0
0
0
0
0
1
0
0
0
0
0
0
0
0
0
0
0
0
0
0
0
0
0
0
0
0
0
0
0
0
1
0
0
0
0
0
0
0
0
0
1
0
0
0
0
0
0
0
0
0
0
0
0
0
1
0
0
0
0
0
0
0
0
0
0
0
0
1
0
0
0
0
0
0
0
0
0
0
0
0
0
0
0
0
0
0
0
0
0
0
0
0
0
0
0
0
0
0
0
0
1
0
0
0
0
0
0
0
0
0
0
0
0
0
1
0
0
0
0
0
0
0
1
0
0
0
0
0
0
0
0
0
0
0
0
1
0
0
0
0
0
0
0
0
0
1
0
0
0
0
0
0
0
0
0
0
0
0
0
0
0
1
0
1
1
1
0
0
0
0
0
0
0
0
0
0
0
0
0
0
0
0
0
0
0
0
0
0
0
0
0
0
0
0
0
0
0
0
0
0
0
0
0
0
0
1
0
0
0
0
0
0
0
0
0
0
0
0
0
0
0
0
0
0
0
0
0
0
0
0
0
0
0
0
0
0
1
0
0
0
0
0
0
1
0
0
0
0
0
0
0
1
0
0
0
0
0
0
0
0
0
0
0
0
0
0
0
0
0
0
0
0
0
0
0
0
0
0
0
0
0
1
0
0
0
0
0
0
0
0
0
0
0
0
0
0
0
0
0
0
0
0
0
0
0
0
0
0
0
0
0
0
0
0
0
0
0
0
0
0
0
0
0
0
0
0
0
0
0
0
0
0
0
0
0
0
0
0
0
0
0
0
0
0
0
0
0
0
0
0
0
0
0
0
0
0
0
0
0
0
0
0
0
0
0
0
0
0
0
0
0
0
0
0
0
0
0
0
0
0
0
0
0
0
0
0
0
0
0
0
0
0
0
0
0
0
0
0
0
0
1
0
0
0
0
0
0
0
0
0
0
1
0
0
0
0
1
0
0
0
0
0
0
0
0
0
0
0
0
0
1
0
0
0
0
0
0
0
0
0
0
0
0
0
0
0
0
0
0
0
0
0
0
0
0
0
0
0
0
0
0
0
0
0
0
0
0
0
0
0
0
0
0
0
0
0
0
0
0
0
1
0
0
1
0
0
0
0
0
0
0
0
0
0
0
0
0
0
0
0
0
0
0
0
0
0
0
0
0
0
0
0
0
0
0
0
0
0
1
0
0
0
0
0
0
0
0
0
0
0
0
0
0
0
0
0
0
0
1
0
0
0
0
0
0
0
1
0
0
0
0
0
0
0
0
0
0
0
0
0
0
0
0
0
0
0
0
0
0
0
0
0
0
0
0
0
0
0
0
0
0
0
0
0
0
0
0
0
0
0
0
0
0
0
0
0
0
0
0
0
0
0
0
0
0
0
0
0
0
0
0
0
1
0
0
0
0
0
0
0
0
0
0
0
0
0
0
1
0
0
0
0
0
0
0
0
0
0
0
0
0
0
0
0
0
1
0
0
0
0
0
0
0
0
0
0
0
1
0
0
0
0
0
0
0
0
0
0
0
0
0
0
0
0
0
0
0
0
0
0
0
0
0
0
0
0
0
0
0
0
0
0
0
0
0
0
0
0
0
0
0
0
0
0
0
0
0
0
0
0
0
0
0
0
0
0
0
0
0
0
0
0
0
0
0
0
0
0
0
0
0
0
0
1
0
0
0
0
0
0
0
0
0
0
0
0
0
0
0
0
0
0
0
0
0
0
0
0
0
0
0
0
0
0
0
0
0
1
0
0
0
0
0
0
0
0
0
0
0
0
0
0
0
0
0
0
1
0
0
0
0
0
0
0
0
0
0
0
0
0
1
0
0
0
0
0
0
0
0
0
0
0
1
0
0
0
0
0
0
0
0
0
0
0
0
0
0
0
0
0
0
0
0
0
0
0
0
0
0
0
0
0
0
0
0
0
0
0
0
0
0
0
0
0
0
0
0
0
0
0
0
0
0
0
0
0
0
0
0
0
0
0
0
0
0
0
0
0
0
0
0
0
0
0
0
0
0
0
1
0
0
0
0
0
0
0
0
0
0
0
0
0
0
0
0
0
0
0
0
0
0
0
0
0
0
0
0
0
0
0
0
0
0
0
0
0
0
1
0
0
0
1
0
0
0
0
0
0
0
0
0
0
0
0
0
0
0
0
0
0
0
0
0
0
0
0
0
0
0
0
0
0
0
0
0
0
1
0
0
0
0
0
0
0
0
0
0
0
0
0
0
0
0
0
0
0
0
0
0
0
1
0
0
0
0
0
0
0
0
0
0
0
0
0
0
0
0
0
0
0
0
0
0
0
0
0
0
0
0
0
0
0
0
0
0
0
0
0
0
0
0
0
0
0
0
0
0
0
0
0
0
0
0
0
0
0
1
0
0
0
0
1
0
0
0
0
0
0
0
0
0
0
0
0
0
0
0
0
0
0
0
0
1
0
0
0
0
0
0
0
0
0
0
0
0
0
0
0
0
0
0
0
0
0
0
0
0
0
0
0
0
0
0
0
0
0
0
0
0
0
0
0
0
0
0
0
0
0
0
0
0
0
0
0
0
0
0
1
0
0
0
0
0
0
0
0
0
0
0
1
0
0
0
0
0
0
0
0
0
0
0
0
0
0
0
0
0
0
0
0
0
0
0
0
0
0
0
0
0
0
0
0
0
0
0
0
0
0
0
0
0
0
0
0
0
0
0
1
0
0
0
0
0
0
0
0
0
0
0
0
0
0
0
0
0
0
0
0
0
0
0
0
0
0
0
0
0
0
0
0
0
0
0
0
0
0
0
0
0
0
0
0
0
0
0
0
0
0
1
0
0
0
0
0
0
0
0
0
0
0
0
0
0
0
0
0
0
0
0
0
0
0
0
0
0
0
0
0
0
0
0
0
0
0
0
0
0
0
0
0
0
0
0
0
0
0
0
0
0
0
0
0
0
0
0
0
0
0
1
0
0
0
0
0
0
0
0
0
0
0
0
0
0
0
0
0
0
0
0
0
0
0
0
0
0
0
0
0
0
0
0
0
0
0
0
0
0
0
0
0
0
0
0
0
0
0
0
0
0
0
0
0
0
0
0
0
0
0
0
1
0
0
0
0
0
0
0
0
0
0
0
0
0
0
0
0
0
0
0
0
0
0
0
0
0
0
0
0
0
0
0
0
0
0
0
0
0
0
0
0
0
0
0
0
0
0
0
0
0
0
0
0
0
0
0
0
0
0
0
0
0
0
0
0
0
0
0
0
0
0
0
0
0
0
0
0
0
0
0
0
0
0
0
0
0
0
1
0
0
0
0
0
0
0
1
0
0
0
0
0
0
1
0
0
0
0
0
0
0
0
0
0
0
0
0
0
0
0
0
0
0
0
0
0
0
0
0
0
0
0
0
0
0
0
0
0
0
0
0
0
0
0
0
0
0
0
0
0
0
0
0
0
0
0
0
0
0
0
0
0
0
0
0
0
0
0
0
0
0
0
0
0
0
0
0
0
0
0
1
0
0
0
0
0
0
0
0
0
0
0
0
0
0
0
0
0
0
0
0
0
0
0
0
0
0
0
0
0
0
0
0
0
0
0
0
0
0
0
0
0
0
0
0
0
0
0
0
0
0
0
0
0
0
0
0
0
0
0
0
0
0
0
0
0
0
0
0
0
0
0
0
0
0
0
0
0
0
0
0
0
0
0
0
0
0
0
0
0
0
0
0
0
0
0
0
0
0
0
0
0
0
0
0
0
0
0
0
0
0
0
0
0
0
0
0
0
0
0
0
0
0
0
0
0
0
0
0
0
0
0
0
0
0
0
0
0
0
0
0
0
0
0
0
0
0
0
0
0
0
0
0
0
0
0
0
0
1
0
0
0
0
0
0
0
0
0
1
0
0
0
0
0
0
0
0
0
0
0
0
0
0
0
1
0
0
0
0
0
0
0
1
0
0
0
0
0
0
0
0
0
0
0
0
0
0
0
0
0
0
0
1
0
0
0
0
0
0
0
0
0
0
0
0
0
0
0
0
0
0
0
0
0
0
1
0
0
0
0
0
0
0
0
0
0
0
0
0
0
0
0
0
0
0
0
0
0
0
0
0
0
0
0
0
0
0
0
0
0
0
0
0
0
0
0
0
0
0
0
0
0
0
0
0
0
0
0
0
0
0
0
0
0
0
0
0
0
0
0
0
0
0
0
0
0
0
0
0
0
0
0
0
0
0
0
0
0
0
0
1
0
0
0
0
0
0
0
0
0
0
0
0
0
0
0
0
0
0
0
0
0
0
0
0
0
0
0
0
0
0
0
0
0
0
1
0
0
0
0
0
0
0
0
0
0
0
0
0
0
0
0
0
1
0
0
0
0
0
0
0
0
0
0
0
0
0
0
0
0
0
0
0
0
0
0
1
0
0
0
0
0
0
0
0
0
0
0
0
0
0
0
0
0
0
0
0
0
0
0
0
0
0
1
0
0
0
0
0
0
0
0
0
0
0
0
0
1
0
0
0
0
0
0
0
0
0
0
0
0
0
1
0
0
0
0
0
0
0
0
0
0
0
0
0
0
0
0
0
0
0
0
0
0
0
0
0
0
0
0
0
0
0
0
0
0
0
0
0
0
0
0
0
0
0
0
0
0
0
0
0
0
0
0
0
1
0
0
0
0
0
0
0
0
0
0
0
0
1
0
0
0
0
0
0
0
0
0
0
0
0
0
0
1
0
0
0
0
0
0
0
0
0
0
0
0
1
0
0
0
0
0
0
0
0
1
0
0
0
0
0
0
0
0
0
0
0
0
0
0
0
0
0
0
0
0
0
0
0
0
0
0
0
0
0
0
0
0
0
0
0
0
0
0
0
1
0
0
1
0
0
0
0
0
0
0
0
0
1
0
0
0
0
1
0
0
0
0
0
0
0
0
0
0
0
0
0
0
0
0
0
0
0
0
0
0
0
0
0
0
0
0
0
0
0
0
0
0
0
0
0
0
0
0
0
0
0
0
0
0
0
0
0
0
0
0
1
0
0
1
0
1
0
0
0
0
0
0
0
0
0
0
0
0
0
0
0
0
1
0
0
0
0
0
0
0
0
0
0
0
0
0
0
0
0
0
0
0
0
0
0
0
0
0
0
0
0
0
0
0
0
0
0
0
0
0
0
0
0
0
0
0
0
0
0
0
0
0
0
0
0
0
0
0
0
0
0
0
0
0
0
0
1
0
0
0
0
1
0
0
0
0
0
0
0
0
0
0
0
0
0
0
0
0
0
0
0
0
0
0
0
0
1
0
0
0
0
0
0
0
0
0
0
0
0
0
0
0
0
0
0
1
0
0
0
0
0
0
0
1
0
0
0
0
1
0
0
0
0
0
0
0
0
0
0
0
0
0
0
0
0
0
0
0
0
0
0
0
0
0
0
0
0
0
0
0
0
0
0
0
0
0
0
0
0
1
0
0
0
0
0
0
0
0
0
0
0
0
0
0
0
0
0
0
1
1
0
0
0
0
1
0
1
0
0
0
0
0
0
0
0
0
0
0
0
0
0
0
0
0
0
0
0
0
0
0
0
0
0
0
0
0
0
0
0
0
0
0
0
0
0
0
0
0
0
0
0
0
0
0
0
0
0
0
0
0
0
0
0
0
0
0
0
0
1
0
0
0
0
0
0
0
0
0
0
0
0
0
0
0
0
0
1
0
0
0
0
0
0
0
0
0
0
0
0
0
0
0
0
0
0
0
0
0
0
0
1
0
0
0
0
0
0
1
0
0
0
0
0
1
1
0
0
0
1
0
0
0
0
0
1
0
0
0
0
0
0
1
0
0
0
0
0
0
1
0
0
0
0
0
1
0
0
0
0
0
0
0
1
0
1
0
0
0
0
1
1
0
0
0
0
0
0
0
0
0
0
0
0
0
0
0
0
0
0
0
0
0
0
0
0
0
0
0
0
0
0
0
0
0
0
0
0
0
0
0
0
0
0
0
0
0
0
0
0
0
0
1
0
1
0
0
0
0
0
0
0
0
1
0
0
1
0
0
1
1
0
0
0
0
0
0
0
0
0
0
0
0
0
0
0
0
0
0
0
0
0
0
0
0
0
1
0
0
0
0
1
0
0
0
0
0
0
0
0
0
0
0
0
0
0
0
0
1
0
0
0
0
0
0
0
0
1
0
0
0
2
0
0
0
0
0
0
0
0
0
1
0
0
0
0
0
0
1
0
1
0
0
0
0
0
0
0
0
0
0
0
0
0
1
0
0
2
0
0
0
0
1
0
0
0
0
1
0
0
0
0
1
0
1
0
0
0
0
1
0
0
0
0
0
0
1
0
0
0
0
0
0
0
0
0
0
0
0
0
0
0
0
0
0
0
0
0
0
0
1
0
0
0
0
0
0
0
0
0
0
0
1
1
1
0
1
0
0
0
0
0
0
0
0
0
0
0
0
0
0
0
0
0
0
0
0
0
0
0
0
0
1
1
0
0
0
0
0
0
0
0
0
0
1
0
0
0
1
0
0
0
3
0
0
0
0
0
1
0
0
1
0
0
0
0
2
1
1
0
0
2
1
0
0
0
0
0
0
0
0
1
0
0
0
0
1
2
0
0
1
0
0
0
0
1
1
0
0
1
1
1
1
2
0
1
0
0
0
2
0
0
0
0
0
0
1
0
0
0
1
0
1
0
0
0
1
0
0
0
1
1
0
1
0
1
1
1
0
1
0
0
0
1
0
0
0
0
2
1
1
1
0
0
1
0
0
1
1
0
0
1
2
1
0
0
0
2
0
2
0
0
0
1
1
1
0
1
0
0
0
0
0
1
1
2
0
0
0
0
0
0
1
1
0
2
1
0
2
0
1
0
0
0
1
1
0
0
0
0
0
0
0
0
1
1
1
0
0
1
0
1
0
1
0
0
0
0
2
0
0
0
0
0
1
0
0
1
0
0
1
0
1
0
0
0
0
0
0
0
0
0
0
0
0
0
0
1
0
1
0
0
0
0
0
0
0
0
0
0
0
0
1
0
0
0
0
0
0
0
1
0
0
0
0
0
0
0
0
0
0
0
0
0
0
0
0
0
0
0
0
0
0
0
0
1
0
0
0
0
0
0
0
0
0
0
0
0
0
4
5
8
8
12
13
13
22
1045
