43,42	0,011858285	29,7
53,16	0,01359608	3
59,54	0,016828776	0,6
81,00	0,013200052	0,6
121,78	0,013472104	0,4
122,06	0,015233819	0,5
136,47	0,014902925	1,5
223,23	0,009221775	12,3
244,70	0,008830921	0,9
276,40	0,007933919	1,7
295,94	0,007236568	6,7
302,85	0,007403958	1
344,28	0,007093104	0,5
356,02	0,006536859	0,6
367,79	0,00719982	4
383,85	0,006489824	1,6
411,12	0,006025356	2,2
416,05	0,005316059	15,2
443,97	0,005486004	1,9
488,68	0,005088601	8,5
503,47	0,005610615	16,1
563,99	0,005205331	7,6
566,43	0,004632462	17,7
586,26	0,004445255	8,5
656,49	0,003987253	23,2
661,66	0,004433628	0,4
674,68	0,004664686	12,5
678,62	0,004874298	7,3
688,67	0,004210459	5,4
712,84	0,003468097	25,8
719,35	0,003914481	10,8
778,90	0,003770735	1
810,45	0,003627245	12,6
834,85	0,003811639	0,4
867,38	0,003406572	2,1
898,04	0,003247419	0,4
919,33	0,003255497	8,9
926,32	0,003494264	10
964,08	0,003184201	1
1085,87	0,002982631	1,2
1089,74	0,002962394	2,5
1112,97	0,002867169	1,1
1173,24	0,002886154	0,6
1212,95	0,002603881	4,3
1292,78	0,002550882	14,8
1299,14	0,002603193	3,5
1332,50	0,002604696	0,6
1408,01	0,002414559	0,9
1457,64	0,002475007	6
1836,06	0,001868224	0,5
2734,09	0,002223949	6,1
