43,42	0,004879363	46,4
53,16	0,004328855	4,4
59,54	0,005029347	0,9
79,61	0,009682381	2,3
81,00	0,004295185	1
121,78	0,004460347	0,4
122,06	0,004693099	0,7
136,47	0,004529343	2,2
160,61	0,004217203	13,3
223,23	0,003552958	17,1
244,70	0,003050738	1,1
276,40	0,002979971	2,4
295,94	0,002891091	7,3
302,85	0,002626531	1,5
324,83	0,002292997	35,2
344,28	0,002443974	0,6
356,02	0,002298312	0,9
367,79	0,002363603	4,6
383,85	0,002169959	2,4
411,12	0,002193662	2,5
443,97	0,001953371	2,2
488,68	0,001987703	8,9
503,47	0,001936228	20,1
563,99	0,00159177	8,9
566,43	0,001950087	16,4
586,26	0,001547259	9,8
661,66	0,001487036	0,7
674,68	0,001918092	12,1
678,62	0,001589825	8,4
688,67	0,001457781	6
719,35	0,001244121	13,9
778,90	0,001298304	1,2
810,45	0,001137365	15,8
834,85	0,001275615	0,6
841,57	0,001623875	27,4
867,38	0,001210437	2,4
898,04	0,0011142	0,6
919,33	0,001343414	8,7
926,32	0,001167273	10,9
930,58	0,001727305	21,5
964,08	0,00109121	1,2
1005,27	0,001394208	6,5
1085,87	0,001020755	1,4
1089,74	0,001039629	2,8
1112,97	0,001002919	1,3
1173,24	0,001003969	0,6
1212,95	0,000940485	4,7
1249,94	0,000953086	18,6
1292,78	0,000867897	15,7
1299,14	0,000874067	4,1
1332,50	0,000903917	0,7
1408,01	0,000846455	1,1
1457,64	0,000800265	6,5
1528,10	0,00096959	9,4
1836,06	0,000639644	0,8
2734,09	0,000402498	13,2
